{
  "content": [
    {
      "id": 1,
      "nome": "Emilio Pollich",
      "cpf": "39409703107",
      "email": "steve.murphy@hotmail.com",
      "salario": 61300.06
    },
    {
      "id": 2,
      "nome": "Brandy Weissnat III",
      "cpf": "19872875251",
      "email": "taya.balistreri@hotmail.com",
      "salario": 30605.57
    },
    {
      "id": 3,
      "nome": "Fritz Friesen",
      "cpf": "61517372020",
      "email": "annamae.brakus@hotmail.com",
      "salario": 67012.58
    },
    {
      "id": 4,
      "nome": "Mrs. Milo Schamberger",
      "cpf": "64845613891",
      "email": "cordelia.reichel@gmail.com",
      "salario": 19355.60
    },
    {
      "id": 5,
      "nome": "Freeman Stamm MD",
      "cpf": "40495584401",
      "email": "virgil.funk@yahoo.com",
      "salario": 65968.08,
      "projetos": [
        {
          "id": 87,
          "nome": "Growlithe Mosciski and Sons",
          "dataInicio": "2025-09-07T19:21:31.863146"
        },
        {
          "id": 16,
          "nome": "Mr. Mime Brown-Brown",
          "dataInicio": "2025-09-07T19:21:31.544649"
        }
      ]
    },
    {
      "id": 6,
      "nome": "Alejandra Shields",
      "cpf": "81643861972",
      "email": "raymundo.turner@gmail.com",
      "salario": 17423.17
    },
    {
      "id": 7,
      "nome": "Darrick Nikolaus",
      "cpf": "53636322095",
      "email": "pattie.hyatt@yahoo.com",
      "salario": 31358.49
    },
    {
      "id": 8,
      "nome": "Preston Emmerich II",
      "cpf": "55508018840",
      "email": "hanna.jacobi@hotmail.com",
      "salario": 30141.11
    },
    {
      "id": 9,
      "nome": "Lane Rowe",
      "cpf": "78233558176",
      "email": "selena.smith@hotmail.com",
      "salario": 99436.20
    },
    {
      "id": 10,
      "nome": "Madie Grimes",
      "cpf": "01307796796",
      "email": "jaron.marks@hotmail.com",
      "salario": 56520.49
    },
    {
      "id": 11,
      "nome": "Dawn Becker",
      "cpf": "20459277928",
      "email": "myra.goldner@hotmail.com",
      "salario": 57877.66,
      "projetos": [
        {
          "id": 75,
          "nome": "Voltorb Blanda Inc",
          "dataInicio": "2025-09-07T19:21:31.802034"
        }
      ]
    },
    {
      "id": 12,
      "nome": "Tatum Schiller",
      "cpf": "41406275220",
      "email": "nellie.mayert@yahoo.com",
      "salario": 41197.87,
      "projetos": [
        {
          "id": 24,
          "nome": "Parasect Sauer and Sons",
          "dataInicio": "2025-09-07T19:21:31.573302"
        }
      ]
    },
    {
      "id": 13,
      "nome": "Constantin Bailey III",
      "cpf": "82406255840",
      "email": "oliver.carter@hotmail.com",
      "salario": 50347.96
    },
    {
      "id": 14,
      "nome": "Ahmad VonRueden",
      "cpf": "86503358105",
      "email": "coleman.gerhold@hotmail.com",
      "salario": 11317.58
    },
    {
      "id": 15,
      "nome": "Mozell Hayes III",
      "cpf": "37134715337",
      "email": "virgil.crona@hotmail.com",
      "salario": 91663.15
    },
    {
      "id": 16,
      "nome": "Burnice Orn",
      "cpf": "13648047434",
      "email": "arlo.mayert@yahoo.com",
      "salario": 29614.95
    },
    {
      "id": 17,
      "nome": "Maureen Dooley",
      "cpf": "64566455068",
      "email": "aliya.runolfsson@gmail.com",
      "salario": 3265.37
    },
    {
      "id": 18,
      "nome": "Gilbert Mraz",
      "cpf": "12003785981",
      "email": "chasity.huel@yahoo.com",
      "salario": 68309.80
    },
    {
      "id": 19,
      "nome": "Julien Schmidt MD",
      "cpf": "03121821806",
      "email": "lula.oconner@hotmail.com",
      "salario": 45852.35
    },
    {
      "id": 20,
      "nome": "Ernestina Gutkowski",
      "cpf": "34633614932",
      "email": "brayan.hudson@gmail.com",
      "salario": 23821.31
    },
    {
      "id": 21,
      "nome": "Ernestine Schinner",
      "cpf": "80966588754",
      "email": "kian.auer@hotmail.com",
      "salario": 56327.37
    },
    {
      "id": 22,
      "nome": "Mr. Grayson Gutmann",
      "cpf": "09692199037",
      "email": "juston.weissnat@yahoo.com",
      "salario": 9439.69
    },
    {
      "id": 23,
      "nome": "Furman Feest V",
      "cpf": "68127021377",
      "email": "terrance.wisozk@hotmail.com",
      "salario": 2350.78
    },
    {
      "id": 24,
      "nome": "Sabrina Rowe",
      "cpf": "65104504026",
      "email": "noelia.roberts@gmail.com",
      "salario": 61123.33
    },
    {
      "id": 25,
      "nome": "Forrest Yundt",
      "cpf": "27534424011",
      "email": "sid.runte@hotmail.com",
      "salario": 93296.95
    },
    {
      "id": 26,
      "nome": "Dixie Vandervort",
      "cpf": "56176247250",
      "email": "saul.feil@yahoo.com",
      "salario": 87781.37,
      "projetos": [
        {
          "id": 69,
          "nome": "Omastar Monahan Group",
          "dataInicio": "2025-09-07T19:21:31.773247"
        }
      ]
    },
    {
      "id": 27,
      "nome": "Mr. Theron Kling",
      "cpf": "57859001730",
      "email": "tyrique.hettinger@gmail.com",
      "salario": 31176.35
    },
    {
      "id": 28,
      "nome": "Davonte Bernier Jr.",
      "cpf": "06556514977",
      "email": "barney.watsica@yahoo.com",
      "salario": 63810.03
    },
    {
      "id": 29,
      "nome": "Alaina Ernser",
      "cpf": "37078673905",
      "email": "shanelle.lesch@hotmail.com",
      "salario": 89135.19
    },
    {
      "id": 30,
      "nome": "Ms. Cathrine Orn",
      "cpf": "71291400893",
      "email": "marlen.konopelski@hotmail.com",
      "salario": 86684.30
    },
    {
      "id": 31,
      "nome": "Dolly Will",
      "cpf": "27457219684",
      "email": "imogene.beahan@gmail.com",
      "salario": 98061.40
    },
    {
      "id": 32,
      "nome": "Lavonne Wisozk",
      "cpf": "37082095910",
      "email": "jordane.goyette@gmail.com",
      "salario": 40695.50
    },
    {
      "id": 33,
      "nome": "May Johnston",
      "cpf": "11418263303",
      "email": "lloyd.weimann@yahoo.com",
      "salario": 49383.01
    },
    {
      "id": 34,
      "nome": "Estelle Hodkiewicz",
      "cpf": "96884281677",
      "email": "christian.hammes@yahoo.com",
      "salario": 27194.78,
      "projetos": [
        {
          "id": 51,
          "nome": "Zapdos White, White and White",
          "dataInicio": "2025-09-07T19:21:31.665305"
        }
      ]
    },
    {
      "id": 35,
      "nome": "Ms. Frieda Trantow",
      "cpf": "82255908727",
      "email": "louvenia.mosciski@gmail.com",
      "salario": 93728.87,
      "projetos": [
        {
          "id": 83,
          "nome": "Shellder Wolf-Wolf",
          "dataInicio": "2025-09-07T19:21:31.843675"
        }
      ]
    },
    {
      "id": 36,
      "nome": "Mr. Carlee Bechtelar",
      "cpf": "90682301906",
      "email": "eunice.gleichner@gmail.com",
      "salario": 28921.32
    },
    {
      "id": 37,
      "nome": "Dr. Forest Schmidt",
      "cpf": "02601105747",
      "email": "adell.durgan@yahoo.com",
      "salario": 34776.53
    },
    {
      "id": 38,
      "nome": "Moriah Blanda",
      "cpf": "22517194319",
      "email": "thomas.runolfsdottir@yahoo.com",
      "salario": 83092.43
    },
    {
      "id": 39,
      "nome": "Gilda Rohan",
      "cpf": "85892528413",
      "email": "lyda.mann@yahoo.com",
      "salario": 80954.49,
      "projetos": [
        {
          "id": 25,
          "nome": "Ekans Daugherty-Daugherty",
          "dataInicio": "2025-09-07T19:21:31.575919"
        }
      ]
    },
    {
      "id": 40,
      "nome": "Mrs. Arielle Jones",
      "cpf": "50440154316",
      "email": "hermina.murazik@yahoo.com",
      "salario": 20518.76
    },
    {
      "id": 41,
      "nome": "Miss Abagail Heathcote",
      "cpf": "29720709413",
      "email": "jazmyne.vandervort@yahoo.com",
      "salario": 73348.02
    },
    {
      "id": 42,
      "nome": "Mr. Bernhard Friesen",
      "cpf": "11844491552",
      "email": "amina.adams@hotmail.com",
      "salario": 30370.15
    },
    {
      "id": 43,
      "nome": "Kira O'Conner",
      "cpf": "08463036392",
      "email": "myrtice.hermann@gmail.com",
      "salario": 18926.99,
      "projetos": [
        {
          "id": 27,
          "nome": "Sandshrew Torp Inc",
          "dataInicio": "2025-09-07T19:21:31.581259"
        },
        {
          "id": 57,
          "nome": "Paras Leannon-Leannon",
          "dataInicio": "2025-09-07T19:21:31.683974"
        }
      ]
    },
    {
      "id": 44,
      "nome": "Salma Ondricka",
      "cpf": "06086714606",
      "email": "renee.jast@gmail.com",
      "salario": 28627.94
    },
    {
      "id": 45,
      "nome": "Ramiro Prohaska",
      "cpf": "60728906449",
      "email": "antoinette.wiza@yahoo.com",
      "salario": 30066.83,
      "projetos": [
        {
          "id": 29,
          "nome": "Fearow Ratke LLC",
          "dataInicio": "2025-09-07T19:21:31.587201"
        }
      ]
    },
    {
      "id": 46,
      "nome": "Amari Kuvalis DDS",
      "cpf": "41955703957",
      "email": "roger.nienow@hotmail.com",
      "salario": 21156.05
    },
    {
      "id": 47,
      "nome": "Carey Smitham",
      "cpf": "17934396139",
      "email": "reggie.lakin@hotmail.com",
      "salario": 6003.35,
      "projetos": [
        {
          "id": 56,
          "nome": "Electabuzz Collins, Collins and Collins",
          "dataInicio": "2025-09-07T19:21:31.679937"
        }
      ]
    },
    {
      "id": 48,
      "nome": "Elna Lind",
      "cpf": "26976325735",
      "email": "giles.lueilwitz@hotmail.com",
      "salario": 62700.33
    },
    {
      "id": 49,
      "nome": "Uriah Sanford",
      "cpf": "16716325832",
      "email": "felipa.deckow@gmail.com",
      "salario": 2011.16
    },
    {
      "id": 50,
      "nome": "Hilda Altenwerth",
      "cpf": "09056411322",
      "email": "nina.goldner@yahoo.com",
      "salario": 85443.58
    },
    {
      "id": 51,
      "nome": "Buford Leffler",
      "cpf": "42376861322",
      "email": "domingo.kunze@hotmail.com",
      "salario": 17171.59
    },
    {
      "id": 52,
      "nome": "Meredith Schaefer",
      "cpf": "45345337136",
      "email": "una.jacobs@hotmail.com",
      "salario": 53412.68,
      "projetos": [
        {
          "id": 49,
          "nome": "Arbok Kuphal, Kuphal and Kuphal",
          "dataInicio": "2025-09-07T19:21:31.659353"
        }
      ]
    },
    {
      "id": 53,
      "nome": "Rachelle Heaney",
      "cpf": "09823213500",
      "email": "lilliana.thompson@hotmail.com",
      "salario": 49853.89,
      "projetos": [
        {
          "id": 48,
          "nome": "Cloyster Parker Inc",
          "dataInicio": "2025-09-07T19:21:31.65552"
        },
        {
          "id": 3,
          "nome": "Charmeleon Franecki, Franecki and Franecki",
          "dataInicio": "2025-09-07T19:21:31.508749"
        },
        {
          "id": 36,
          "nome": "Machamp Grimes-Grimes",
          "dataInicio": "2025-09-07T19:21:31.608238"
        }
      ]
    },
    {
      "id": 54,
      "nome": "Jailyn Zemlak",
      "cpf": "11599277743",
      "email": "chesley.fay@gmail.com",
      "salario": 8908.73
    },
    {
      "id": 55,
      "nome": "Kristoffer Friesen",
      "cpf": "28936330136",
      "email": "alfonzo.dubuque@yahoo.com",
      "salario": 61672.42
    },
    {
      "id": 56,
      "nome": "Lacey Donnelly",
      "cpf": "72046873378",
      "email": "heath.bogan@yahoo.com",
      "salario": 96987.21
    },
    {
      "id": 57,
      "nome": "Scottie Koss",
      "cpf": "69369855726",
      "email": "naomi.davis@hotmail.com",
      "salario": 62583.64
    },
    {
      "id": 58,
      "nome": "Raoul Brekke",
      "cpf": "06290102184",
      "email": "leonard.von@yahoo.com",
      "salario": 92207.02
    },
    {
      "id": 59,
      "nome": "Myrtice Glover",
      "cpf": "38809893468",
      "email": "ezequiel.reichel@yahoo.com",
      "salario": 40545.14,
      "projetos": [
        {
          "id": 48,
          "nome": "Cloyster Parker Inc",
          "dataInicio": "2025-09-07T19:21:31.65552"
        },
        {
          "id": 91,
          "nome": "Staryu Bergnaum, Bergnaum and Bergnaum",
          "dataInicio": "2025-09-07T19:21:31.879865"
        }
      ]
    },
    {
      "id": 60,
      "nome": "Calista Mitchell DVM",
      "cpf": "90544033817",
      "email": "shana.lemke@gmail.com",
      "salario": 84961.31
    },
    {
      "id": 61,
      "nome": "Mrs. Elouise Erdman",
      "cpf": "18006585679",
      "email": "grace.wunsch@hotmail.com",
      "salario": 20680.37
    },
    {
      "id": 62,
      "nome": "Dr. Sanford Bednar",
      "cpf": "62087988684",
      "email": "eleazar.keebler@gmail.com",
      "salario": 31226.98
    },
    {
      "id": 63,
      "nome": "Emory Tromp",
      "cpf": "59559434551",
      "email": "joany.kohler@hotmail.com",
      "salario": 85433.15,
      "projetos": [
        {
          "id": 4,
          "nome": "Snorlax Collier and Sons",
          "dataInicio": "2025-09-07T19:21:31.510895"
        },
        {
          "id": 84,
          "nome": "Zapdos Franecki LLC",
          "dataInicio": "2025-09-07T19:21:31.848564"
        }
      ]
    },
    {
      "id": 64,
      "nome": "Ahmed Kohler",
      "cpf": "20126340366",
      "email": "theodore.wolf@yahoo.com",
      "salario": 46426.26,
      "projetos": [
        {
          "id": 97,
          "nome": "Psyduck Klocko, Klocko and Klocko",
          "dataInicio": "2025-09-07T19:21:31.918103"
        }
      ]
    },
    {
      "id": 65,
      "nome": "Ms. Hudson Von",
      "cpf": "04106671298",
      "email": "loyal.macejkovic@hotmail.com",
      "salario": 41873.01
    },
    {
      "id": 66,
      "nome": "Dr. Rowland Doyle",
      "cpf": "76158627011",
      "email": "deanna.abshire@gmail.com",
      "salario": 30174.21
    },
    {
      "id": 67,
      "nome": "Clara Runolfsdottir",
      "cpf": "84838055536",
      "email": "darrel.rodriguez@yahoo.com",
      "salario": 23057.64
    },
    {
      "id": 68,
      "nome": "Julianne Lind",
      "cpf": "45782658622",
      "email": "ardith.stracke@hotmail.com",
      "salario": 8774.11
    },
    {
      "id": 69,
      "nome": "Simeon Zemlak",
      "cpf": "06105953690",
      "email": "leslie.nolan@hotmail.com",
      "salario": 67337.25
    },
    {
      "id": 70,
      "nome": "Micah Mueller",
      "cpf": "98607698850",
      "email": "dallin.funk@yahoo.com",
      "salario": 11753.67
    },
    {
      "id": 71,
      "nome": "Myrtis Lindgren II",
      "cpf": "29614719311",
      "email": "adrienne.dibbert@yahoo.com",
      "salario": 41182.53,
      "projetos": [
        {
          "id": 28,
          "nome": "Venonat Hettinger-Hettinger",
          "dataInicio": "2025-09-07T19:21:31.583973"
        },
        {
          "id": 13,
          "nome": "Bellsprout Dietrich LLC",
          "dataInicio": "2025-09-07T19:21:31.534139"
        }
      ]
    },
    {
      "id": 72,
      "nome": "Mrs. Horacio Kulas",
      "cpf": "46555477156",
      "email": "roscoe.maggio@gmail.com",
      "salario": 77122.76
    },
    {
      "id": 73,
      "nome": "Cleveland Vandervort",
      "cpf": "03752695170",
      "email": "dejon.herzog@hotmail.com",
      "salario": 63533.54
    },
    {
      "id": 74,
      "nome": "Steve Davis",
      "cpf": "11499981210",
      "email": "aaliyah.johnston@yahoo.com",
      "salario": 74667.16,
      "projetos": [
        {
          "id": 88,
          "nome": "Hypno Harris, Harris and Harris",
          "dataInicio": "2025-09-07T19:21:31.867474"
        }
      ]
    },
    {
      "id": 75,
      "nome": "Kane Volkman",
      "cpf": "28557484291",
      "email": "iva.wolf@yahoo.com",
      "salario": 69069.92
    },
    {
      "id": 76,
      "nome": "Madelynn Mosciski",
      "cpf": "28682352044",
      "email": "dorothy.oconnell@yahoo.com",
      "salario": 71199.20
    },
    {
      "id": 77,
      "nome": "Roslyn Spinka",
      "cpf": "13182614223",
      "email": "forest.schultz@yahoo.com",
      "salario": 4822.28,
      "projetos": [
        {
          "id": 18,
          "nome": "Gyarados Torp Inc",
          "dataInicio": "2025-09-07T19:21:31.551647"
        }
      ]
    },
    {
      "id": 78,
      "nome": "Kaleb Sauer",
      "cpf": "27740427390",
      "email": "richmond.hayes@yahoo.com",
      "salario": 15782.03
    },
    {
      "id": 79,
      "nome": "Tre Bode",
      "cpf": "44405122245",
      "email": "fernando.mills@hotmail.com",
      "salario": 45888.72
    },
    {
      "id": 80,
      "nome": "Curtis Schimmel",
      "cpf": "67848983897",
      "email": "burley.haag@gmail.com",
      "salario": 91060.05
    },
    {
      "id": 81,
      "nome": "Madison Reilly",
      "cpf": "09127313549",
      "email": "ansel.bednar@yahoo.com",
      "salario": 90320.22
    },
    {
      "id": 82,
      "nome": "Kelley Hansen",
      "cpf": "81019292903",
      "email": "shemar.koepp@yahoo.com",
      "salario": 43718.51
    },
    {
      "id": 83,
      "nome": "Bernadette Jaskolski",
      "cpf": "63994703824",
      "email": "rosemarie.sawayn@gmail.com",
      "salario": 53902.49
    },
    {
      "id": 84,
      "nome": "Milton Spinka",
      "cpf": "84091644856",
      "email": "elyse.durgan@hotmail.com",
      "salario": 61475.40
    },
    {
      "id": 85,
      "nome": "Mertie Casper",
      "cpf": "09824696750",
      "email": "valerie.hane@hotmail.com",
      "salario": 51263.82
    },
    {
      "id": 86,
      "nome": "Rose Kirlin",
      "cpf": "71467879401",
      "email": "zoie.beer@yahoo.com",
      "salario": 48229.03
    },
    {
      "id": 87,
      "nome": "Myah Gorczany DDS",
      "cpf": "59973793374",
      "email": "otilia.greenfelder@gmail.com",
      "salario": 46203.93
    },
    {
      "id": 88,
      "nome": "Antoinette Pouros",
      "cpf": "37075530003",
      "email": "lexus.grimes@gmail.com",
      "salario": 2611.15
    },
    {
      "id": 89,
      "nome": "Cordie Skiles",
      "cpf": "87822080008",
      "email": "amira.kassulke@hotmail.com",
      "salario": 19022.40
    },
    {
      "id": 90,
      "nome": "Kelsi Stamm IV",
      "cpf": "41640821600",
      "email": "lenna.beier@yahoo.com",
      "salario": 67248.52
    },
    {
      "id": 91,
      "nome": "Fae Eichmann",
      "cpf": "49435810721",
      "email": "dashawn.morar@hotmail.com",
      "salario": 97579.09
    },
    {
      "id": 92,
      "nome": "Saul Maggio",
      "cpf": "82299932542",
      "email": "elna.schroeder@yahoo.com",
      "salario": 69160.18,
      "projetos": [
        {
          "id": 15,
          "nome": "Golbat Green-Green",
          "dataInicio": "2025-09-07T19:21:31.541972"
        }
      ]
    },
    {
      "id": 93,
      "nome": "Kassandra Stroman",
      "cpf": "74071712201",
      "email": "roselyn.klocko@gmail.com",
      "salario": 95376.41,
      "projetos": [
        {
          "id": 36,
          "nome": "Machamp Grimes-Grimes",
          "dataInicio": "2025-09-07T19:21:31.608238"
        }
      ]
    },
    {
      "id": 94,
      "nome": "Malinda Hyatt Jr.",
      "cpf": "59329475868",
      "email": "vanessa.weimann@gmail.com",
      "salario": 41797.54,
      "projetos": [
        {
          "id": 65,
          "nome": "Moltres Kuvalis Inc",
          "dataInicio": "2025-09-07T19:21:31.740025"
        },
        {
          "id": 24,
          "nome": "Parasect Sauer and Sons",
          "dataInicio": "2025-09-07T19:21:31.573302"
        }
      ]
    },
    {
      "id": 95,
      "nome": "Ressie Terry DVM",
      "cpf": "42799337236",
      "email": "carlee.terry@gmail.com",
      "salario": 85795.68
    },
    {
      "id": 96,
      "nome": "Thelma Grady Jr.",
      "cpf": "59481405982",
      "email": "coby.spinka@yahoo.com",
      "salario": 8146.27
    },
    {
      "id": 97,
      "nome": "Mrs. Malachi Heidenreich",
      "cpf": "59864782401",
      "email": "ezekiel.homenick@hotmail.com",
      "salario": 8942.52
    },
    {
      "id": 98,
      "nome": "Dr. Fredrick Lindgren",
      "cpf": "23070369626",
      "email": "merlin.thiel@hotmail.com",
      "salario": 11590.99
    },
    {
      "id": 99,
      "nome": "Mrs. Corrine Ratke",
      "cpf": "63259569405",
      "email": "hipolito.anderson@gmail.com",
      "salario": 78491.39
    },
    {
      "id": 100,
      "nome": "Dr. Danielle Johns",
      "cpf": "52899747762",
      "email": "marcelle.koss@gmail.com",
      "salario": 6725.40
    }
  ],
  "page": {
    "size": 100,
    "number": 0,
    "totalElements": 1000,
    "totalPages": 10
  }
}