{
  "content": [
    {
      "id": 1,
      "nome": "Scyther Trantow-Trantow",
      "dataInicio": "2025-09-07T19:21:31.436498",
      "funcionarios": [
        {
          "id": 802,
          "nome": "Eldora Rogahn PhD",
          "cpf": "85560364223",
          "email": "aglae.runolfsson@hotmail.com",
          "salario": 16689.54
        },
        {
          "id": 374,
          "nome": "Katlynn Stehr",
          "cpf": "41124088547",
          "email": "westley.crooks@gmail.com",
          "salario": 13487.29
        },
        {
          "id": 262,
          "nome": "Efrain Cruickshank",
          "cpf": "72234634903",
          "email": "kacey.powlowski@yahoo.com",
          "salario": 61816.28
        },
        {
          "id": 755,
          "nome": "Skye Breitenberg",
          "cpf": "39359132497",
          "email": "alford.ritchie@hotmail.com",
          "salario": 43249.06
        }
      ]
    },
    {
      "id": 2,
      "nome": "Bulbasaur Powlowski-Powlowski",
      "dataInicio": "2025-09-07T19:21:31.50593",
      "funcionarios": [
        {
          "id": 365,
          "nome": "Diana Borer",
          "cpf": "30802960448",
          "email": "king.pouros@gmail.com",
          "salario": 23290.02
        },
        {
          "id": 868,
          "nome": "Howell Kuhn",
          "cpf": "29544004556",
          "email": "felipa.stark@hotmail.com",
          "salario": 98008.03
        },
        {
          "id": 185,
          "nome": "Elfrieda Abshire",
          "cpf": "70612489809",
          "email": "theodora.towne@gmail.com",
          "salario": 59998.36
        },
        {
          "id": 730,
          "nome": "Velda Dickens IV",
          "cpf": "81568211309",
          "email": "zella.koelpin@yahoo.com",
          "salario": 54548.58
        },
        {
          "id": 761,
          "nome": "Dalton Boehm MD",
          "cpf": "71919288910",
          "email": "lois.runte@yahoo.com",
          "salario": 6186.56
        }
      ]
    },
    {
      "id": 3,
      "nome": "Charmeleon Franecki, Franecki and Franecki",
      "dataInicio": "2025-09-07T19:21:31.508749",
      "funcionarios": [
        {
          "id": 790,
          "nome": "Ruthie Koss",
          "cpf": "08129951126",
          "email": "duane.jacobs@gmail.com",
          "salario": 32216.91
        },
        {
          "id": 53,
          "nome": "Rachelle Heaney",
          "cpf": "09823213500",
          "email": "lilliana.thompson@hotmail.com",
          "salario": 49853.89
        },
        {
          "id": 498,
          "nome": "Sim Gutkowski",
          "cpf": "27279195733",
          "email": "romaine.blanda@gmail.com",
          "salario": 89856.42
        },
        {
          "id": 493,
          "nome": "Scottie Witting",
          "cpf": "27377713151",
          "email": "vincenzo.mann@gmail.com",
          "salario": 45022.32
        }
      ]
    },
    {
      "id": 4,
      "nome": "Snorlax Collier and Sons",
      "dataInicio": "2025-09-07T19:21:31.510895",
      "funcionarios": [
        {
          "id": 63,
          "nome": "Emory Tromp",
          "cpf": "59559434551",
          "email": "joany.kohler@hotmail.com",
          "salario": 85433.15
        },
        {
          "id": 214,
          "nome": "Mrs. Lonny Effertz",
          "cpf": "08412303580",
          "email": "velva.emard@yahoo.com",
          "salario": 26435.51
        }
      ]
    },
    {
      "id": 5,
      "nome": "Golbat Raynor Inc",
      "dataInicio": "2025-09-07T19:21:31.513584",
      "funcionarios": [
        {
          "id": 667,
          "nome": "Raoul Breitenberg",
          "cpf": "48094231319",
          "email": "devante.howe@yahoo.com",
          "salario": 9702.55
        },
        {
          "id": 156,
          "nome": "Mrs. Makenzie Morar",
          "cpf": "40568972805",
          "email": "hyman.feeney@hotmail.com",
          "salario": 10331.17
        },
        {
          "id": 689,
          "nome": "Florence Emard V",
          "cpf": "27726207353",
          "email": "kari.schroeder@hotmail.com",
          "salario": 55825.94
        },
        {
          "id": 913,
          "nome": "Trenton Hintz",
          "cpf": "23021008321",
          "email": "dora.stanton@hotmail.com",
          "salario": 95880.73
        },
        {
          "id": 484,
          "nome": "Adella Jenkins Jr.",
          "cpf": "97238201020",
          "email": "sonya.padberg@yahoo.com",
          "salario": 63218.86
        }
      ]
    },
    {
      "id": 6,
      "nome": "Doduo Dickinson, Dickinson and Dickinson",
      "dataInicio": "2025-09-07T19:21:31.516796",
      "funcionarios": [
        {
          "id": 408,
          "nome": "Neva Spencer",
          "cpf": "87457606831",
          "email": "jose.runolfsson@gmail.com",
          "salario": 34298.87
        },
        {
          "id": 662,
          "nome": "Tommie Koelpin",
          "cpf": "61565588533",
          "email": "elmira.funk@hotmail.com",
          "salario": 6865.45
        },
        {
          "id": 390,
          "nome": "Mack Von",
          "cpf": "67893602120",
          "email": "bryce.smith@yahoo.com",
          "salario": 13040.35
        },
        {
          "id": 741,
          "nome": "Ulices Hauck",
          "cpf": "63199659594",
          "email": "agustina.hagenes@gmail.com",
          "salario": 98617.57
        },
        {
          "id": 254,
          "nome": "Maia Reilly IV",
          "cpf": "08177382586",
          "email": "alford.wiza@gmail.com",
          "salario": 93195.64
        }
      ]
    },
    {
      "id": 7,
      "nome": "Aerodactyl McDermott-McDermott",
      "dataInicio": "2025-09-07T19:21:31.519211",
      "funcionarios": [
        {
          "id": 869,
          "nome": "Erika Gleichner",
          "cpf": "33611601381",
          "email": "vance.kutch@gmail.com",
          "salario": 98351.09
        },
        {
          "id": 209,
          "nome": "Cruz Pagac",
          "cpf": "36140921511",
          "email": "tyrell.parker@hotmail.com",
          "salario": 51914.08
        }
      ]
    },
    {
      "id": 8,
      "nome": "Pidgeotto Gorczany-Gorczany",
      "dataInicio": "2025-09-07T19:21:31.521877",
      "funcionarios": [
        {
          "id": 671,
          "nome": "Ms. Craig Veum",
          "cpf": "66943088335",
          "email": "paris.homenick@hotmail.com",
          "salario": 13353.11
        }
      ]
    },
    {
      "id": 9,
      "nome": "Kadabra Eichmann, Eichmann and Eichmann",
      "dataInicio": "2025-09-07T19:21:31.524533",
      "funcionarios": [
        {
          "id": 235,
          "nome": "Lea Schimmel",
          "cpf": "52194231854",
          "email": "hans.klein@hotmail.com",
          "salario": 76006.21
        },
        {
          "id": 112,
          "nome": "Aurore Effertz",
          "cpf": "36763822006",
          "email": "alexandra.halvorson@hotmail.com",
          "salario": 14422.26
        },
        {
          "id": 429,
          "nome": "Kristina Paucek",
          "cpf": "45198422045",
          "email": "olaf.quitzon@hotmail.com",
          "salario": 15055.35
        },
        {
          "id": 487,
          "nome": "Miguel Roberts",
          "cpf": "76635371737",
          "email": "johnnie.bogan@yahoo.com",
          "salario": 91890.20
        }
      ]
    },
    {
      "id": 10,
      "nome": "Pidgeotto Hane, Hane and Hane",
      "dataInicio": "2025-09-07T19:21:31.526641",
      "funcionarios": [
        {
          "id": 980,
          "nome": "Johathan Koepp",
          "cpf": "99142038332",
          "email": "janiya.russel@yahoo.com",
          "salario": 38090.16
        },
        {
          "id": 426,
          "nome": "Urban Fisher",
          "cpf": "13199214266",
          "email": "makayla.schimmel@hotmail.com",
          "salario": 50178.93
        },
        {
          "id": 600,
          "nome": "Chaim Gorczany",
          "cpf": "76529986383",
          "email": "conor.bosco@hotmail.com",
          "salario": 3152.56
        }
      ]
    },
    {
      "id": 11,
      "nome": "Porygon Schmitt and Sons",
      "dataInicio": "2025-09-07T19:21:31.528766",
      "funcionarios": [
        {
          "id": 941,
          "nome": "Catharine Kunde V",
          "cpf": "85734110663",
          "email": "meta.yundt@gmail.com",
          "salario": 45512.15
        },
        {
          "id": 354,
          "nome": "Mrs. Lilliana Torphy",
          "cpf": "87994741150",
          "email": "colton.treutel@gmail.com",
          "salario": 20245.74
        },
        {
          "id": 313,
          "nome": "Devante Green",
          "cpf": "98067341222",
          "email": "camren.bayer@hotmail.com",
          "salario": 12255.10
        }
      ]
    },
    {
      "id": 12,
      "nome": "Golbat Torp, Torp and Torp",
      "dataInicio": "2025-09-07T19:21:31.530894",
      "funcionarios": [
        {
          "id": 941,
          "nome": "Catharine Kunde V",
          "cpf": "85734110663",
          "email": "meta.yundt@gmail.com",
          "salario": 45512.15
        },
        {
          "id": 274,
          "nome": "Mozell Gulgowski",
          "cpf": "14267378746",
          "email": "fatima.kiehn@gmail.com",
          "salario": 87165.49
        },
        {
          "id": 317,
          "nome": "Gennaro Fay III",
          "cpf": "83532090120",
          "email": "denis.wilkinson@gmail.com",
          "salario": 57598.72
        },
        {
          "id": 400,
          "nome": "Mr. Norris Hessel",
          "cpf": "27319201305",
          "email": "danny.douglas@hotmail.com",
          "salario": 78870.29
        }
      ]
    },
    {
      "id": 13,
      "nome": "Bellsprout Dietrich LLC",
      "dataInicio": "2025-09-07T19:21:31.534139",
      "funcionarios": [
        {
          "id": 428,
          "nome": "Ms. Amanda Dicki",
          "cpf": "24751801104",
          "email": "carissa.carter@gmail.com",
          "salario": 72510.37
        },
        {
          "id": 262,
          "nome": "Efrain Cruickshank",
          "cpf": "72234634903",
          "email": "kacey.powlowski@yahoo.com",
          "salario": 61816.28
        },
        {
          "id": 71,
          "nome": "Myrtis Lindgren II",
          "cpf": "29614719311",
          "email": "adrienne.dibbert@yahoo.com",
          "salario": 41182.53
        },
        {
          "id": 800,
          "nome": "Jorge Frami",
          "cpf": "24880820741",
          "email": "dejah.mcglynn@yahoo.com",
          "salario": 89947.34
        }
      ]
    },
    {
      "id": 14,
      "nome": "Jolteon Leannon-Leannon",
      "dataInicio": "2025-09-07T19:21:31.539197",
      "funcionarios": [
        {
          "id": 731,
          "nome": "Marcellus Russel",
          "cpf": "22651837849",
          "email": "erna.jacobs@yahoo.com",
          "salario": 47435.71
        },
        {
          "id": 391,
          "nome": "Ms. Isom Waelchi",
          "cpf": "49378764495",
          "email": "giovanna.lubowitz@gmail.com",
          "salario": 54208.46
        },
        {
          "id": 701,
          "nome": "Paxton Skiles",
          "cpf": "02023652472",
          "email": "norene.stehr@yahoo.com",
          "salario": 94329.23
        },
        {
          "id": 900,
          "nome": "Waino Weber",
          "cpf": "30304481858",
          "email": "jaylan.langworth@hotmail.com",
          "salario": 55234.90
        }
      ]
    },
    {
      "id": 15,
      "nome": "Golbat Green-Green",
      "dataInicio": "2025-09-07T19:21:31.541972",
      "funcionarios": [
        {
          "id": 731,
          "nome": "Marcellus Russel",
          "cpf": "22651837849",
          "email": "erna.jacobs@yahoo.com",
          "salario": 47435.71
        },
        {
          "id": 92,
          "nome": "Saul Maggio",
          "cpf": "82299932542",
          "email": "elna.schroeder@yahoo.com",
          "salario": 69160.18
        },
        {
          "id": 581,
          "nome": "Evangeline Kertzmann II",
          "cpf": "85981743352",
          "email": "kristin.bauch@hotmail.com",
          "salario": 7101.63
        },
        {
          "id": 864,
          "nome": "Walker Frami DDS",
          "cpf": "31944127607",
          "email": "assunta.considine@yahoo.com",
          "salario": 54762.03
        }
      ]
    },
    {
      "id": 16,
      "nome": "Mr. Mime Brown-Brown",
      "dataInicio": "2025-09-07T19:21:31.544649",
      "funcionarios": [
        {
          "id": 5,
          "nome": "Freeman Stamm MD",
          "cpf": "40495584401",
          "email": "virgil.funk@yahoo.com",
          "salario": 65968.08
        },
        {
          "id": 731,
          "nome": "Marcellus Russel",
          "cpf": "22651837849",
          "email": "erna.jacobs@yahoo.com",
          "salario": 47435.71
        },
        {
          "id": 243,
          "nome": "Mr. Vada O'Kon",
          "cpf": "99847642141",
          "email": "alisa.stark@yahoo.com",
          "salario": 75541.63
        },
        {
          "id": 710,
          "nome": "Kay Toy",
          "cpf": "95747766384",
          "email": "sasha.hegmann@gmail.com",
          "salario": 95168.65
        }
      ]
    },
    {
      "id": 17,
      "nome": "Psyduck Murazik LLC",
      "dataInicio": "2025-09-07T19:21:31.547888",
      "funcionarios": [
        {
          "id": 713,
          "nome": "Osvaldo Dickinson",
          "cpf": "60391494180",
          "email": "dewitt.lebsack@hotmail.com",
          "salario": 9322.81
        },
        {
          "id": 510,
          "nome": "Zackery Becker",
          "cpf": "55557025820",
          "email": "brendan.daniel@yahoo.com",
          "salario": 73278.93
        }
      ]
    },
    {
      "id": 18,
      "nome": "Gyarados Torp Inc",
      "dataInicio": "2025-09-07T19:21:31.551647",
      "funcionarios": [
        {
          "id": 77,
          "nome": "Roslyn Spinka",
          "cpf": "13182614223",
          "email": "forest.schultz@yahoo.com",
          "salario": 4822.28
        },
        {
          "id": 127,
          "nome": "Reymundo Gerhold",
          "cpf": "72860654917",
          "email": "adonis.nitzsche@yahoo.com",
          "salario": 6792.61
        },
        {
          "id": 247,
          "nome": "Diamond Schuppe",
          "cpf": "19200172407",
          "email": "clifford.simonis@yahoo.com",
          "salario": 80641.35
        },
        {
          "id": 436,
          "nome": "Lia Johnson",
          "cpf": "06956374609",
          "email": "efren.casper@yahoo.com",
          "salario": 14390.68
        },
        {
          "id": 447,
          "nome": "Van Heathcote",
          "cpf": "97752587311",
          "email": "sven.davis@hotmail.com",
          "salario": 5568.07
        }
      ]
    },
    {
      "id": 19,
      "nome": "Gengar Emard-Emard",
      "dataInicio": "2025-09-07T19:21:31.555517",
      "funcionarios": [
        {
          "id": 593,
          "nome": "Mr. Shakira Jakubowski",
          "cpf": "33419843305",
          "email": "trenton.satterfield@hotmail.com",
          "salario": 75839.20
        }
      ]
    },
    {
      "id": 20,
      "nome": "Tentacool Nikolaus-Nikolaus",
      "dataInicio": "2025-09-07T19:21:31.559506",
      "funcionarios": [
        {
          "id": 592,
          "nome": "Miss Hulda Wuckert",
          "cpf": "90709359535",
          "email": "gideon.lakin@yahoo.com",
          "salario": 89763.51
        },
        {
          "id": 776,
          "nome": "Davon Feil",
          "cpf": "23150278023",
          "email": "jonas.wilkinson@hotmail.com",
          "salario": 10162.23
        },
        {
          "id": 495,
          "nome": "Ms. Reva Glover",
          "cpf": "40017257972",
          "email": "diana.stamm@gmail.com",
          "salario": 90107.23
        }
      ]
    }
  ],
  "page": {
    "size": 20,
    "number": 0,
    "totalElements": 100,
    "totalPages": 5
  }
}